<svg width="14" height="14" viewBox="0 0 14 14" fill="none" xmlns="http://www.w3.org/2000/svg">
<path d="M11.9021 1.76055C10.8145 0.625242 9.36852 0 7.83047 0C6.29242 0 4.84642 0.625242 3.75886 1.76055C2.6713 2.89584 2.07231 4.4053 2.07231 6.01081C2.07231 8.44875 2.21358 11.2936 0.527102 13.0541L0.292387 13.2991C0.138784 13.4594 0.138784 13.7194 0.292387 13.8797C0.369189 13.9599 0.469854 14 0.570492 14C0.67113 14 0.771821 13.9599 0.848596 13.8797L1.16982 13.5444C2.76967 11.8744 5.51777 12.0217 7.83047 12.0217C9.36854 12.0217 10.8145 11.3964 11.9021 10.2611C12.9896 9.12584 13.5886 7.61638 13.5886 6.01084C13.5886 4.4053 12.9897 2.89584 11.9021 1.76055ZM11.3458 9.68048C9.40744 11.7039 6.25352 11.7039 4.31512 9.68048C2.37674 7.65704 2.37674 4.36466 4.31512 2.34123C5.28441 1.3294 6.55724 0.823648 7.83049 0.823648C9.10343 0.823648 10.3768 1.32964 11.3459 2.34123C13.2842 4.36464 13.2842 7.65702 11.3458 9.68048Z" fill="#242424"/>
</svg>
