<svg width="121" height="121" viewBox="0 0 121 121" fill="none" xmlns="http://www.w3.org/2000/svg">
<g clip-path="url(#clip0)">
<path d="M103.28 17.72C91.8532 6.29316 76.6599 0 60.5 0C44.3392 0 29.1468 6.29316 17.72 17.72C6.29316 29.1468 0 44.3392 0 60.5C0 76.6599 6.29316 91.8532 17.72 103.28C29.1468 114.707 44.3392 121 60.5 121C76.6599 121 91.8532 114.707 103.28 103.28C114.707 91.8532 121 76.6599 121 60.5C121 44.3392 114.707 29.1468 103.28 17.72ZM30.3303 104.548C32.8607 89.9792 45.4858 79.2327 60.5 79.2327C75.5151 79.2327 88.1393 89.9792 90.6697 104.548C82.0797 110.45 71.6868 113.91 60.5 113.91C49.3132 113.91 38.9203 110.45 30.3303 104.548ZM41.2633 52.9061C41.2633 42.2981 49.8929 33.6694 60.5 33.6694C71.1071 33.6694 79.7367 42.299 79.7367 52.9061C79.7367 63.5132 71.1071 72.1429 60.5 72.1429C49.8929 72.1429 41.2633 63.5132 41.2633 52.9061ZM96.8105 99.6308C94.9024 92.8483 91.1128 86.6946 85.801 81.8877C82.5422 78.9382 78.833 76.6109 74.8449 74.9705C82.0529 70.2688 86.8275 62.1349 86.8275 52.9061C86.8275 38.3895 75.0166 26.5795 60.5 26.5795C45.9834 26.5795 34.1734 38.3895 34.1734 52.9061C34.1734 62.1349 38.948 70.2688 46.1551 74.9705C42.168 76.6109 38.4578 78.9373 35.199 81.8868C29.8881 86.6936 26.0976 92.8474 24.1895 99.6298C13.6793 89.8693 7.08984 75.9407 7.08984 60.5C7.08984 31.0495 31.0495 7.08984 60.5 7.08984C89.9505 7.08984 113.91 31.0495 113.91 60.5C113.91 75.9416 107.321 89.8702 96.8105 99.6308Z" fill="#E4C102"/>
</g>
<defs>
<clipPath id="clip0">
<rect width="121" height="121" fill="white"/>
</clipPath>
</defs>
</svg>
